{ "height":21,
 "layers":[
        {
         "draworder":"topdown",
         "height":0,
         "name":"Background",
         "objects":[
                {
                 "gid":2,
                 "height":400,
                 "id":13,
                 "name":"",
                 "rotation":0,
                 "type":"",
                 "visible":true,
                 "width":1664,
                 "x":-131,
                 "y":1016.3734
                }, 
                {
                 "gid":3,
                 "height":700,
                 "id":16,
                 "name":"",
                 "rotation":0,
                 "type":"",
                 "visible":true,
                 "width":2389,
                 "x":-967,
                 "y":698.3734
                }, 
                {
                 "gid":4,
                 "height":700,
                 "id":17,
                 "name":"",
                 "rotation":0,
                 "type":"",
                 "visible":true,
                 "width":2389,
                 "x":-968,
                 "y":700.3734
                }],
         "opacity":1,
         "type":"objectgroup",
         "visible":true,
         "width":0,
         "x":0,
         "y":0
        }, 
        {
         "draworder":"topdown",
         "height":0,
         "name":"Foreground",
         "objects":[
                {
                 "gid":1,
                 "height":541,
                 "id":3,
                 "name":"",
                 "rotation":0,
                 "type":"",
                 "visible":true,
                 "width":509,
                 "x":173,
                 "y":634.3734
                }, 
                {
                 "gid":2,
                 "height":32,
                 "id":12,
                 "name":"start",
                 "rotation":0,
                 "type":"",
                 "visible":true,
                 "width":32,
                 "x":320,
                 "y":236.37
                }, 
                {
                 "gid":5,
                 "height":104,
                 "id":18,
                 "name":"",
                 "rotation":0,
                 "type":"",
                 "visible":true,
                 "width":96,
                 "x":749,
                 "y":618.3734
                }],
         "opacity":1,
         "type":"objectgroup",
         "visible":true,
         "width":0,
         "x":0,
         "y":0
        }, 
        {
         "draworder":"topdown",
         "height":0,
         "name":"Frame",
         "objects":[
                {
                 "gid":2,
                 "height":488.568,
                 "id":7,
                 "name":"right",
                 "rotation":2.27642,
                 "type":"",
                 "visible":true,
                 "width":79.6191,
                 "x":629.615,
                 "y":562.4524
                }, 
                {
                 "gid":2,
                 "height":495.98,
                 "id":8,
                 "name":"left",
                 "rotation":0.519035,
                 "type":"",
                 "visible":true,
                 "width":48.2154,
                 "x":245,
                 "y":550.3734
                }, 
                {
                 "gid":2,
                 "height":64.0363,
                 "id":14,
                 "name":"bottom",
                 "rotation":0.264511,
                 "type":"",
                 "visible":true,
                 "width":504.032,
                 "x":200,
                 "y":536.3734
                }, 
                {
                 "gid":2,
                 "height":39.2464,
                 "id":15,
                 "name":"top",
                 "rotation":-1.92185,
                 "type":"",
                 "visible":true,
                 "width":520.244,
                 "x":238.914,
                 "y":140
                }],
         "opacity":1,
         "type":"objectgroup",
         "visible":true,
         "width":0,
         "x":0,
         "y":0
        }],
 "nextobjectid":20,
 "orientation":"orthogonal",
 "renderorder":"right-down",
 "tileheight":32,
 "tilesets":[
        {
         "columns":1,
         "firstgid":1,
         "image":"..\/..\/..\/minigames\/frame_shooting.png",
         "imageheight":560,
         "imagewidth":528,
         "margin":0,
         "name":"frame_shooting",
         "spacing":0,
         "tilecount":1,
         "tileheight":560,
         "tilewidth":528
        }, 
        {
         "columns":1,
         "firstgid":2,
         "image":"..\/..\/..\/clear.png",
         "imageheight":32,
         "imagewidth":32,
         "margin":0,
         "name":"clear",
         "spacing":0,
         "tilecount":1,
         "tileheight":32,
         "tilewidth":32
        }, 
        {
         "columns":1,
         "firstgid":3,
         "image":"..\/..\/..\/minigames\/bg_mountain.png",
         "imageheight":700,
         "imagewidth":2389,
         "margin":0,
         "name":"bg_mountain",
         "spacing":0,
         "tilecount":1,
         "tileheight":700,
         "tilewidth":2389
        }, 
        {
         "columns":1,
         "firstgid":4,
         "image":"..\/..\/..\/minigames\/fg_mountain.png",
         "imageheight":700,
         "imagewidth":2389,
         "margin":0,
         "name":"fg_mountain",
         "spacing":0,
         "tilecount":1,
         "tileheight":700,
         "tilewidth":2389
        }, 
        {
         "columns":1,
         "firstgid":5,
         "image":"..\/..\/..\/exit.png",
         "imageheight":179,
         "imagewidth":160,
         "margin":0,
         "name":"exit",
         "spacing":0,
         "tilecount":1,
         "tileheight":179,
         "tilewidth":160
        }],
 "tilewidth":32,
 "version":1,
 "width":29
}